Time(Hours),EntityID,ObjectName,ProcessID,StepName,Action
0.0265305814423296,--,--,--,--,The maximum number in system limit for entities of type 'Box' has been exceeded.
0.0265305814423296,--,--,--,--,Possible causes:

